{
	"port": 4000,
	"auth": {
		"facebook": {
			"clientID": "147122125675188",
			"clientSecret": "8dd73250025d397306b69660e6f82160",
			"callbackURL": "http://localhost:3000/auth/facebook/callback"
		}
	}
}